[{
  "id": "018fd60b-2815-4e38-63ba-9d700fc94038",
  "name": "BOARD M BUS INTEL MAINBOARD HDMI",
  "feature": "Board",
  "country": "United States of America"
}, {
  "id": "85616713-8b73-4bae-ce2f-9372629ccbd3",
  "name": "ASROCK Z270M PRO 4 HDMI VGA DVI 64 GB CROSSFIRE",
  "feature": "Board",
  "country": "United States of America"
}, {
  "id": "9a4c233b-0cca-4531-e48b-36961a9196a4",
  "name": "DD 4 TERAS SEAGATE ST 4000DM004 BARRACUDA",
  "feature": "HDD",
  "country": "China"
}, {
  "id": "ae1fbb93-7db6-4259-f49c-15f9dddc6bca",
  "name": "GIGABYTE X 99 GAMIG 5 -P 5 USB 3.0 DDR 4",
  "feature": "Board",
  "country": "China"
}, {
  "id": "e617ae50-602c-4058-7c01-b951cb6a99b0",
  "name": "DD 2 TERAS SATA SEAGATE -7200 RPM (BARRACUDA)",
  "feature": "HDD",
  "country": "Taiwan"
}, {
  "id": "3c2fd8ca-1f63-4600-feed-98f0d15ab179",
  "name": "CORE I7 7800X GHZ 6MB 2066",
  "feature": "Processor",
  "country": "China"
}, {
  "id": "32ba3570-fe6c-461e-04c2-c561f6cc3b53",
  "name": "CORE I7 8700 3.2N GHZ 12 MB",
  "feature": "Processor",
  "country": "Taiwan"
}, {
  "id": "0ea29efd-d954-4782-59ba-16a34d2b0f77",
  "name": "TARJETA EVGA GEFORCE GT 720 1 GIGAS HDMI-DVI-VGA",
  "feature": "Video",
  "country": "Colombia"
}]
